{
  "Template": {
    "TemplateName": "Group_Invite",
    "SubjectPart": "Peacock Sleeves | {{owner}} Invites You To A Group Order",
    "HtmlPart": "<!doctype html><html xmlns='http://www.w3.org/1999/xhtml' xmlns:v='urn:schemas-microsoft-com:vml' xmlns:o='urn:schemas-microsoft-com:office:office'><head><title></title><meta http-equiv='X-UA-Compatible' content='IE=edge'><meta http-equiv='Content-Type' content='text/html; charset=UTF-8'><meta name='viewport' content='width=device-width,initial-scale=1'><style type='text/css'>#outlook a{padding:0}body{margin:0;padding:0;-webkit-text-size-adjust:100%;-ms-text-size-adjust:100%}table,td{border-collapse:collapse;mso-table-lspace:0;mso-table-rspace:0}img{border:0;height:auto;line-height:100%;outline:0;text-decoration:none;-ms-interpolation-mode:bicubic}p{display:block;margin:13px 0}</style><style type='text/css'>@media only screen and (min-width:480px){.mj-column-per-100{width:100%!important;max-width:100%}.mj-column-per-33{width:33%!important;max-width:33%}.mj-column-per-50{width:50%!important;max-width:50%}}</style><style type='text/css'>@media only screen and (max-width:480px){table.mj-full-width-mobile{width:100%!important}td.mj-full-width-mobile{width:auto!important}}</style></head><body style='background-color:#fff'><div style='background-color:#fff'><div style='margin:0 auto;max-width:600px'><table align='center' border='0' cellpadding='0' cellspacing='0' role='presentation' style='width:100%'><tbody><tr><td style='direction:ltr;font-size:0;padding:20px 0;padding-top:0;text-align:center'><div class='mj-column-per-100 mj-outlook-group-fix' style='font-size:0;text-align:left;direction:ltr;display:inline-block;vertical-align:top;width:100%'><table border='0' cellpadding='0' cellspacing='0' role='presentation' style='vertical-align:top' width='100%'><tr><td align='center' style='font-size:0;padding:10px 25px;padding-top:0;word-break:break-word'><table border='0' cellpadding='0' cellspacing='0' role='presentation' style='border-collapse:collapse;border-spacing:0'><tbody><tr><td style='width:550px'><img alt=' height='auto' src='https://peacock-media.s3.us-east-2.amazonaws.com/emailHero.jpg' style='border:none;display:block;outline:0;text-decoration:none;height:auto;width:100%;font-size:13px' width='550'></td></tr></tbody></table></td></tr></table></div></td></tr></tbody></table></div><div style='margin:0 auto;max-width:600px'><table align='center' border='0' cellpadding='0' cellspacing='0' role='presentation' style='width:100%'><tbody><tr><td style='direction:ltr;font-size:0;padding:20px 0;padding-bottom:0;padding-top:0;text-align:center'><div class='mj-column-per-100 mj-outlook-group-fix' style='font-size:0;text-align:left;direction:ltr;display:inline-block;vertical-align:top;width:100%'><table border='0' cellpadding='0' cellspacing='0' role='presentation' style='vertical-align:top' width='100%'><tr><td align='left' style='font-size:0;padding:10px 25px;padding-top:15px;padding-right:25px;padding-bottom:15px;padding-left:25px;word-break:break-word'><div style='font-family:Arial,sans-serif;font-size:32px;font-weight:700;line-height:1;text-align:left;color:#03015c'>Heyyoo Party People</div></td></tr></table></div></td></tr></tbody></table></div><div style='margin:0 auto;max-width:600px'><table align='center' border='0' cellpadding='0' cellspacing='0' role='presentation' style='width:100%'><tbody><tr><td style='direction:ltr;font-size:0;padding:20px 0;padding-bottom:20px;padding-top:20px;text-align:center'><div class='mj-column-per-100 mj-outlook-group-fix' style='font-size:0;text-align:left;direction:ltr;display:inline-block;vertical-align:middle;width:100%'><table border='0' cellpadding='0' cellspacing='0' role='presentation' style='vertical-align:middle' width='100%'><tr><td align='left' style='font-size:0;padding:10px 25px;padding-right:25px;padding-left:25px;word-break:break-word'><div style='font-family:Arial,sans-serif;font-size:22px;line-height:1;text-align:left;color:#03015c'>Welcome to the party.</div></td></tr><tr><td align='left' style='font-size:0;padding:10px 25px;padding-right:25px;padding-left:25px;word-break:break-word'><div style='font-family:Arial,sans-serif;font-size:16px;line-height:1;text-align:left;color:#03015c'>Are you ready to go down as a legend with {{owner}}? It's your turn to create custom peacock sleeves.</div></td></tr><tr><td align='left' style='font-size:0;padding:10px 25px;padding-right:25px;padding-left:25px;word-break:break-word'><div style='font-family:Arial,sans-serif;font-size:16px;line-height:1;text-align:left;color:#03015c'>Click the button below to start designing your shirt. Your pass code is:</div></td></tr><tr><td align='center' style='font-size:0;padding:10px 25px;word-break:break-word'><div style='font-family:Arial,sans-serif;font-size:20px;font-weight:700;line-height:1;text-align:center;color:#03015c'>PASS CODE</div></td></tr><tr><td align='center' style='font-size:0;padding:10px 25px;word-break:break-word'><div style='font-family:Arial,sans-serif;font-size:18px;font-weight:700;line-height:1;text-align:center;color:#03015c'>{{passcode}}</div></td></tr><tr><td align='center' vertical-align='middle' style='font-size:0;padding:10px 25px;word-break:break-word'><table border='0' cellpadding='0' cellspacing='0' role='presentation' style='border-collapse:separate;line-height:100%'><tr><td align='center' bgcolor='#FFB758' role='presentation' style='border:none;border-radius:3px;cursor:auto;mso-padding-alt:10px 25px;background:#ffb758' valign='middle'><a href='https://peacocksleeves.com/group-order?utm_medium=email&utm_source=awsses&utm_campaign=group' style='display:inline-block;background:#ffb758;color:#03015c;font-family:Arial,sans-serif;font-size:16px;font-weight:400;line-height:120%;margin:0;text-decoration:none;text-transform:none;padding:10px 25px;mso-padding-alt:0;border-radius:3px' target='_blank'>LETS DO THIS!</a></td></tr></table></td></tr><tr><td align='left' style='font-size:0;padding:10px 25px;padding-right:25px;padding-left:25px;word-break:break-word'><div style='font-family:Arial,sans-serif;font-size:16px;line-height:1;text-align:left;color:#03015c'>Thanks,<br>Peacock Sleeves</div></td></tr></table></div></td></tr></tbody></table></div><div style='margin:0 auto;max-width:600px'><table align='center' border='0' cellpadding='0' cellspacing='0' role='presentation' style='width:100%'><tbody><tr><td style='direction:ltr;font-size:0;padding:20px 0;padding-bottom:15px;padding-top:15px;text-align:center'><div class='mj-column-per-100 mj-outlook-group-fix' style='font-size:0;text-align:left;direction:ltr;display:inline-block;vertical-align:top;width:100%'><table border='0' cellpadding='0' cellspacing='0' role='presentation' style='vertical-align:top' width='100%'><tr><td align='center' style='font-size:0;padding:10px 25px;word-break:break-word'><div style='font-family:Arial,sans-serif;font-size:20px;font-weight:700;line-height:1;text-align:center;color:#03015c'>NEW TO PEACOCK SLEEVES?<br>HERE'S HOW IT WORKS</div></td></tr></table></div></td></tr></tbody></table></div><div style='margin:0 auto;max-width:600px'><table align='center' border='0' cellpadding='0' cellspacing='0' role='presentation' style='width:100%'><tbody><tr><td style='direction:ltr;font-size:0;padding:20px 0;text-align:center'><div class='mj-column-per-33 mj-outlook-group-fix' style='font-size:0;text-align:left;direction:ltr;display:inline-block;vertical-align:top;width:100%'><table border='0' cellpadding='0' cellspacing='0' role='presentation' style='vertical-align:top' width='100%'><tr><td align='center' style='font-size:0;padding:10px 25px;padding-right:0;padding-left:0;word-break:break-word'><table border='0' cellpadding='0' cellspacing='0' role='presentation' style='border-collapse:collapse;border-spacing:0'><tbody><tr><td style='width:198px'><img alt=' height='175' src='https://peacock-media.s3.us-east-2.amazonaws.com/stage1.jpg' style='border:none;display:block;outline:0;text-decoration:none;height:175px;width:100%;font-size:13px' width='198'></td></tr></tbody></table></td></tr><tr><td align='center' style='font-size:0;padding:10px 25px;padding-left:25px;word-break:break-word'><div style='font-family:Arial,sans-serif;font-size:16px;font-style:italic;line-height:1;text-align:center;color:#03015c'>Parents Love You</div></td></tr></table></div><div class='mj-column-per-33 mj-outlook-group-fix' style='font-size:0;text-align:left;direction:ltr;display:inline-block;vertical-align:top;width:100%'><table border='0' cellpadding='0' cellspacing='0' role='presentation' style='vertical-align:top' width='100%'><tr><td align='center' style='font-size:0;padding:10px 25px;padding-right:0;padding-left:0;word-break:break-word'><table border='0' cellpadding='0' cellspacing='0' role='presentation' style='border-collapse:collapse;border-spacing:0'><tbody><tr><td style='width:198px'><img alt=' height='175' src='https://peacock-media.s3.us-east-2.amazonaws.com/stage2.jpg' style='border:none;display:block;outline:0;text-decoration:none;height:175px;width:100%;font-size:13px' width='198'></td></tr></tbody></table></td></tr><tr><td align='center' style='font-size:0;padding:10px 25px;padding-left:25px;word-break:break-word'><div style='font-family:Arial,sans-serif;font-size:16px;font-style:italic;line-height:1;text-align:center;color:#03015c'>Friends Want to be You</div></td></tr></table></div><div class='mj-column-per-33 mj-outlook-group-fix' style='font-size:0;text-align:left;direction:ltr;display:inline-block;vertical-align:top;width:100%'><table border='0' cellpadding='0' cellspacing='0' role='presentation' style='vertical-align:top' width='100%'><tr><td align='center' style='font-size:0;padding:10px 25px;padding-right:0;padding-left:0;word-break:break-word'><table border='0' cellpadding='0' cellspacing='0' role='presentation' style='border-collapse:collapse;border-spacing:0'><tbody><tr><td style='width:198px'><img alt=' height='175' src='https://peacock-media.s3.us-east-2.amazonaws.com/stage3.jpg' style='border:none;display:block;outline:0;text-decoration:none;height:175px;width:100%;font-size:13px' width='198'></td></tr></tbody></table></td></tr><tr><td align='center' style='font-size:0;padding:10px 25px;padding-left:25px;word-break:break-word'><div style='font-family:Arial,sans-serif;font-size:16px;font-style:italic;line-height:1;text-align:center;color:#03015c'>You Love You</div></td></tr></table></div></td></tr></tbody></table></div><div style='background:#03015c;background-color:#03015c;margin:0 auto;max-width:600px'><table align='center' border='0' cellpadding='0' cellspacing='0' role='presentation' style='background:#03015c;background-color:#03015c;width:100%'><tbody><tr><td style='direction:ltr;font-size:0;padding:20px 0;text-align:center'><div class='mj-column-per-50 mj-outlook-group-fix' style='font-size:0;text-align:left;direction:ltr;display:inline-block;vertical-align:top;width:100%'><table border='0' cellpadding='0' cellspacing='0' role='presentation' style='vertical-align:top' width='100%'><tr><td align='center' style='font-size:0;padding:10px 25px;word-break:break-word'><table align='center' border='0' cellpadding='0' cellspacing='0' role='presentation' style='float:none;display:inline-table'><tr><td style='padding:4px;vertical-align:middle'><table border='0' cellpadding='0' cellspacing='0' role='presentation' style='border-radius:3px;width:30px'><tr><td style='font-size:0;height:30px;vertical-align:middle;width:30px'><a href='https://www.facebook.com/peacocksleeves' target='_blank'><img height='30' src='https://peacock-media.s3.us-east-2.amazonaws.com/facebook.png' style='border-radius:3px;display:block' width='30'></a></td></tr></table></td></tr></table></td></tr></table></div><div class='mj-column-per-50 mj-outlook-group-fix' style='font-size:0;text-align:left;direction:ltr;display:inline-block;vertical-align:top;width:100%'><table border='0' cellpadding='0' cellspacing='0' role='presentation' style='vertical-align:top' width='100%'><tr><td align='center' style='font-size:0;padding:10px 25px;word-break:break-word'><table align='center' border='0' cellpadding='0' cellspacing='0' role='presentation' style='float:none;display:inline-table'><tr><td style='padding:4px;vertical-align:middle'><table border='0' cellpadding='0' cellspacing='0' role='presentation' style='border-radius:3px;width:30px'><tr><td style='font-size:0;height:30px;vertical-align:middle;width:30px'><a href='https://www.instagram.com/peacocksleeves/' target='_blank'><img height='30' src='https://peacock-media.s3.us-east-2.amazonaws.com/insta.png' style='border-radius:3px;display:block' width='30'></a></td></tr></table></td></tr></table></td></tr></table></div></td></tr></tbody></table></div></div></body></html>",
    "TextPart": "Welcome to the party.\r\nAre you ready to go down as a legend with {{owner}}? It's your turn to create custom peacock sleeves.\n\nYour pass code is:\n{{passcode}}\n\n\nThanks,\nPeacock Sleeves"
  }
}